<?xml version="1.0"?>
<!DOCTYPE svg PUBLIC "-//W3C//DTD SVG 1.1//EN"
"http://www.w3.org/Graphics/SVG/1.1/DTD/svg11.dtd">
<svg xmlns="http://www.w3.org/2000/svg" width = "750" height = "700" version = "1.1">
<line x1="0" x2="730" y1="680" y2="680" stroke="black"/>
<line x1="20" x2="20" y1="20" y2="700" stroke="black"/>
<text x="21" y="695" fill="black">pocet prvkov na triedenie</text>
<text x="21" y="20" fill="red">Bubble Sort - porovnania</text>
<text x="21" y="40" fill="blue">Bubble Sort - vymeny</text>
<text x="21" y="60" fill="black">Shell Sort - porovnania</text>
<text x="21" y="80" fill="green">Shell Sort - vymeny</text>
<circle cx="50" cy="678" r="2"   stroke="red"/>
<circle cx="50" cy="679" r="2"   stroke="blue"/>
<line x1="50" x2="50" y1="678" y2="678" stroke="red"/>
<line x1="50" x2="50" y1="679" y2="679" stroke="blue"/>
<circle cx="50" cy="680" r="2"   stroke="black"/>
<circle cx="50" cy="679" r="2"   stroke="green"/>
<line x1="50" x2="50" y1="680" y2="680" stroke="black"/>
<line x1="50" x2="50" y1="679" y2="679" stroke="green"/>
<circle cx="60" cy="677" r="2"   stroke="red"/>
<circle cx="60" cy="679" r="2"   stroke="blue"/>
<line x1="60" x2="50" y1="677" y2="678" stroke="red"/>
<line x1="60" x2="50" y1="679" y2="679" stroke="blue"/>
<circle cx="60" cy="679" r="2"   stroke="black"/>
<circle cx="60" cy="679" r="2"   stroke="green"/>
<line x1="60" x2="50" y1="679" y2="680" stroke="black"/>
<line x1="60" x2="50" y1="679" y2="679" stroke="green"/>
<circle cx="70" cy="676" r="2"   stroke="red"/>
<circle cx="70" cy="677" r="2"   stroke="blue"/>
<line x1="70" x2="60" y1="676" y2="677" stroke="red"/>
<line x1="70" x2="60" y1="677" y2="679" stroke="blue"/>
<circle cx="70" cy="679" r="2"   stroke="black"/>
<circle cx="70" cy="679" r="2"   stroke="green"/>
<line x1="70" x2="60" y1="679" y2="679" stroke="black"/>
<line x1="70" x2="60" y1="679" y2="679" stroke="green"/>
<circle cx="80" cy="675" r="2"   stroke="red"/>
<circle cx="80" cy="678" r="2"   stroke="blue"/>
<line x1="80" x2="70" y1="675" y2="676" stroke="red"/>
<line x1="80" x2="70" y1="678" y2="677" stroke="blue"/>
<circle cx="80" cy="677" r="2"   stroke="black"/>
<circle cx="80" cy="678" r="2"   stroke="green"/>
<line x1="80" x2="70" y1="677" y2="679" stroke="black"/>
<line x1="80" x2="70" y1="678" y2="679" stroke="green"/>
<circle cx="90" cy="673" r="2"   stroke="red"/>
<circle cx="90" cy="676" r="2"   stroke="blue"/>
<line x1="90" x2="80" y1="673" y2="675" stroke="red"/>
<line x1="90" x2="80" y1="676" y2="678" stroke="blue"/>
<circle cx="90" cy="677" r="2"   stroke="black"/>
<circle cx="90" cy="678" r="2"   stroke="green"/>
<line x1="90" x2="80" y1="677" y2="677" stroke="black"/>
<line x1="90" x2="80" y1="678" y2="678" stroke="green"/>
<circle cx="100" cy="671" r="2"   stroke="red"/>
<circle cx="100" cy="676" r="2"   stroke="blue"/>
<line x1="100" x2="90" y1="671" y2="673" stroke="red"/>
<line x1="100" x2="90" y1="676" y2="676" stroke="blue"/>
<circle cx="100" cy="677" r="2"   stroke="black"/>
<circle cx="100" cy="679" r="2"   stroke="green"/>
<line x1="100" x2="90" y1="677" y2="677" stroke="black"/>
<line x1="100" x2="90" y1="679" y2="678" stroke="green"/>
<circle cx="110" cy="669" r="2"   stroke="red"/>
<circle cx="110" cy="673" r="2"   stroke="blue"/>
<line x1="110" x2="100" y1="669" y2="671" stroke="red"/>
<line x1="110" x2="100" y1="673" y2="676" stroke="blue"/>
<circle cx="110" cy="677" r="2"   stroke="black"/>
<circle cx="110" cy="678" r="2"   stroke="green"/>
<line x1="110" x2="100" y1="677" y2="677" stroke="black"/>
<line x1="110" x2="100" y1="678" y2="679" stroke="green"/>
<circle cx="120" cy="667" r="2"   stroke="red"/>
<circle cx="120" cy="677" r="2"   stroke="blue"/>
<line x1="120" x2="110" y1="667" y2="669" stroke="red"/>
<line x1="120" x2="110" y1="677" y2="673" stroke="blue"/>
<circle cx="120" cy="675" r="2"   stroke="black"/>
<circle cx="120" cy="678" r="2"   stroke="green"/>
<line x1="120" x2="110" y1="675" y2="677" stroke="black"/>
<line x1="120" x2="110" y1="678" y2="678" stroke="green"/>
<circle cx="130" cy="665" r="2"   stroke="red"/>
<circle cx="130" cy="673" r="2"   stroke="blue"/>
<line x1="130" x2="120" y1="665" y2="667" stroke="red"/>
<line x1="130" x2="120" y1="673" y2="677" stroke="blue"/>
<circle cx="130" cy="676" r="2"   stroke="black"/>
<circle cx="130" cy="677" r="2"   stroke="green"/>
<line x1="130" x2="120" y1="676" y2="675" stroke="black"/>
<line x1="130" x2="120" y1="677" y2="678" stroke="green"/>
<circle cx="140" cy="662" r="2"   stroke="red"/>
<circle cx="140" cy="672" r="2"   stroke="blue"/>
<line x1="140" x2="130" y1="662" y2="665" stroke="red"/>
<line x1="140" x2="130" y1="672" y2="673" stroke="blue"/>
<circle cx="140" cy="676" r="2"   stroke="black"/>
<circle cx="140" cy="675" r="2"   stroke="green"/>
<line x1="140" x2="130" y1="676" y2="676" stroke="black"/>
<line x1="140" x2="130" y1="675" y2="677" stroke="green"/>
<circle cx="150" cy="659" r="2"   stroke="red"/>
<circle cx="150" cy="671" r="2"   stroke="blue"/>
<line x1="150" x2="140" y1="659" y2="662" stroke="red"/>
<line x1="150" x2="140" y1="671" y2="672" stroke="blue"/>
<circle cx="150" cy="675" r="2"   stroke="black"/>
<circle cx="150" cy="675" r="2"   stroke="green"/>
<line x1="150" x2="140" y1="675" y2="676" stroke="black"/>
<line x1="150" x2="140" y1="675" y2="675" stroke="green"/>
<circle cx="160" cy="656" r="2"   stroke="red"/>
<circle cx="160" cy="670" r="2"   stroke="blue"/>
<line x1="160" x2="150" y1="656" y2="659" stroke="red"/>
<line x1="160" x2="150" y1="670" y2="671" stroke="blue"/>
<circle cx="160" cy="671" r="2"   stroke="black"/>
<circle cx="160" cy="674" r="2"   stroke="green"/>
<line x1="160" x2="150" y1="671" y2="675" stroke="black"/>
<line x1="160" x2="150" y1="674" y2="675" stroke="green"/>
<circle cx="170" cy="653" r="2"   stroke="red"/>
<circle cx="170" cy="667" r="2"   stroke="blue"/>
<line x1="170" x2="160" y1="653" y2="656" stroke="red"/>
<line x1="170" x2="160" y1="667" y2="670" stroke="blue"/>
<circle cx="170" cy="672" r="2"   stroke="black"/>
<circle cx="170" cy="676" r="2"   stroke="green"/>
<line x1="170" x2="160" y1="672" y2="671" stroke="black"/>
<line x1="170" x2="160" y1="676" y2="674" stroke="green"/>
<circle cx="180" cy="650" r="2"   stroke="red"/>
<circle cx="180" cy="668" r="2"   stroke="blue"/>
<line x1="180" x2="170" y1="650" y2="653" stroke="red"/>
<line x1="180" x2="170" y1="668" y2="667" stroke="blue"/>
<circle cx="180" cy="670" r="2"   stroke="black"/>
<circle cx="180" cy="675" r="2"   stroke="green"/>
<line x1="180" x2="170" y1="670" y2="672" stroke="black"/>
<line x1="180" x2="170" y1="675" y2="676" stroke="green"/>
<circle cx="190" cy="646" r="2"   stroke="red"/>
<circle cx="190" cy="666" r="2"   stroke="blue"/>
<line x1="190" x2="180" y1="646" y2="650" stroke="red"/>
<line x1="190" x2="180" y1="666" y2="668" stroke="blue"/>
<circle cx="190" cy="670" r="2"   stroke="black"/>
<circle cx="190" cy="674" r="2"   stroke="green"/>
<line x1="190" x2="180" y1="670" y2="670" stroke="black"/>
<line x1="190" x2="180" y1="674" y2="675" stroke="green"/>
<circle cx="200" cy="642" r="2"   stroke="red"/>
<circle cx="200" cy="660" r="2"   stroke="blue"/>
<line x1="200" x2="190" y1="642" y2="646" stroke="red"/>
<line x1="200" x2="190" y1="660" y2="666" stroke="blue"/>
<circle cx="200" cy="670" r="2"   stroke="black"/>
<circle cx="200" cy="675" r="2"   stroke="green"/>
<line x1="200" x2="190" y1="670" y2="670" stroke="black"/>
<line x1="200" x2="190" y1="675" y2="674" stroke="green"/>
<circle cx="210" cy="638" r="2"   stroke="red"/>
<circle cx="210" cy="657" r="2"   stroke="blue"/>
<line x1="210" x2="200" y1="638" y2="642" stroke="red"/>
<line x1="210" x2="200" y1="657" y2="660" stroke="blue"/>
<circle cx="210" cy="669" r="2"   stroke="black"/>
<circle cx="210" cy="674" r="2"   stroke="green"/>
<line x1="210" x2="200" y1="669" y2="670" stroke="black"/>
<line x1="210" x2="200" y1="674" y2="675" stroke="green"/>
<circle cx="220" cy="634" r="2"   stroke="red"/>
<circle cx="220" cy="663" r="2"   stroke="blue"/>
<line x1="220" x2="210" y1="634" y2="638" stroke="red"/>
<line x1="220" x2="210" y1="663" y2="657" stroke="blue"/>
<circle cx="220" cy="668" r="2"   stroke="black"/>
<circle cx="220" cy="674" r="2"   stroke="green"/>
<line x1="220" x2="210" y1="668" y2="669" stroke="black"/>
<line x1="220" x2="210" y1="674" y2="674" stroke="green"/>
<circle cx="230" cy="630" r="2"   stroke="red"/>
<circle cx="230" cy="653" r="2"   stroke="blue"/>
<line x1="230" x2="220" y1="630" y2="634" stroke="red"/>
<line x1="230" x2="220" y1="653" y2="663" stroke="blue"/>
<circle cx="230" cy="668" r="2"   stroke="black"/>
<circle cx="230" cy="674" r="2"   stroke="green"/>
<line x1="230" x2="220" y1="668" y2="668" stroke="black"/>
<line x1="230" x2="220" y1="674" y2="674" stroke="green"/>
<circle cx="240" cy="625" r="2"   stroke="red"/>
<circle cx="240" cy="648" r="2"   stroke="blue"/>
<line x1="240" x2="230" y1="625" y2="630" stroke="red"/>
<line x1="240" x2="230" y1="648" y2="653" stroke="blue"/>
<circle cx="240" cy="668" r="2"   stroke="black"/>
<circle cx="240" cy="670" r="2"   stroke="green"/>
<line x1="240" x2="230" y1="668" y2="668" stroke="black"/>
<line x1="240" x2="230" y1="670" y2="674" stroke="green"/>
<circle cx="250" cy="620" r="2"   stroke="red"/>
<circle cx="250" cy="651" r="2"   stroke="blue"/>
<line x1="250" x2="240" y1="620" y2="625" stroke="red"/>
<line x1="250" x2="240" y1="651" y2="648" stroke="blue"/>
<circle cx="250" cy="667" r="2"   stroke="black"/>
<circle cx="250" cy="662" r="2"   stroke="green"/>
<line x1="250" x2="240" y1="667" y2="668" stroke="black"/>
<line x1="250" x2="240" y1="662" y2="670" stroke="green"/>
<circle cx="260" cy="615" r="2"   stroke="red"/>
<circle cx="260" cy="653" r="2"   stroke="blue"/>
<line x1="260" x2="250" y1="615" y2="620" stroke="red"/>
<line x1="260" x2="250" y1="653" y2="651" stroke="blue"/>
<circle cx="260" cy="666" r="2"   stroke="black"/>
<circle cx="260" cy="669" r="2"   stroke="green"/>
<line x1="260" x2="250" y1="666" y2="667" stroke="black"/>
<line x1="260" x2="250" y1="669" y2="662" stroke="green"/>
<circle cx="270" cy="610" r="2"   stroke="red"/>
<circle cx="270" cy="642" r="2"   stroke="blue"/>
<line x1="270" x2="260" y1="610" y2="615" stroke="red"/>
<line x1="270" x2="260" y1="642" y2="653" stroke="blue"/>
<circle cx="270" cy="667" r="2"   stroke="black"/>
<circle cx="270" cy="668" r="2"   stroke="green"/>
<line x1="270" x2="260" y1="667" y2="666" stroke="black"/>
<line x1="270" x2="260" y1="668" y2="669" stroke="green"/>
<circle cx="280" cy="605" r="2"   stroke="red"/>
<circle cx="280" cy="640" r="2"   stroke="blue"/>
<line x1="280" x2="270" y1="605" y2="610" stroke="red"/>
<line x1="280" x2="270" y1="640" y2="642" stroke="blue"/>
<circle cx="280" cy="666" r="2"   stroke="black"/>
<circle cx="280" cy="665" r="2"   stroke="green"/>
<line x1="280" x2="270" y1="666" y2="667" stroke="black"/>
<line x1="280" x2="270" y1="665" y2="668" stroke="green"/>
<circle cx="290" cy="599" r="2"   stroke="red"/>
<circle cx="290" cy="638" r="2"   stroke="blue"/>
<line x1="290" x2="280" y1="599" y2="605" stroke="red"/>
<line x1="290" x2="280" y1="638" y2="640" stroke="blue"/>
<circle cx="290" cy="665" r="2"   stroke="black"/>
<circle cx="290" cy="669" r="2"   stroke="green"/>
<line x1="290" x2="280" y1="665" y2="666" stroke="black"/>
<line x1="290" x2="280" y1="669" y2="665" stroke="green"/>
<circle cx="300" cy="593" r="2"   stroke="red"/>
<circle cx="300" cy="639" r="2"   stroke="blue"/>
<line x1="300" x2="290" y1="593" y2="599" stroke="red"/>
<line x1="300" x2="290" y1="639" y2="638" stroke="blue"/>
<circle cx="300" cy="664" r="2"   stroke="black"/>
<circle cx="300" cy="670" r="2"   stroke="green"/>
<line x1="300" x2="290" y1="664" y2="665" stroke="black"/>
<line x1="300" x2="290" y1="670" y2="669" stroke="green"/>
<circle cx="310" cy="587" r="2"   stroke="red"/>
<circle cx="310" cy="629" r="2"   stroke="blue"/>
<line x1="310" x2="300" y1="587" y2="593" stroke="red"/>
<line x1="310" x2="300" y1="629" y2="639" stroke="blue"/>
<circle cx="310" cy="664" r="2"   stroke="black"/>
<circle cx="310" cy="666" r="2"   stroke="green"/>
<line x1="310" x2="300" y1="664" y2="664" stroke="black"/>
<line x1="310" x2="300" y1="666" y2="670" stroke="green"/>
<circle cx="320" cy="581" r="2"   stroke="red"/>
<circle cx="320" cy="636" r="2"   stroke="blue"/>
<line x1="320" x2="310" y1="581" y2="587" stroke="red"/>
<line x1="320" x2="310" y1="636" y2="629" stroke="blue"/>
<circle cx="320" cy="657" r="2"   stroke="black"/>
<circle cx="320" cy="666" r="2"   stroke="green"/>
<line x1="320" x2="310" y1="657" y2="664" stroke="black"/>
<line x1="320" x2="310" y1="666" y2="666" stroke="green"/>
<circle cx="330" cy="575" r="2"   stroke="red"/>
<circle cx="330" cy="632" r="2"   stroke="blue"/>
<line x1="330" x2="320" y1="575" y2="581" stroke="red"/>
<line x1="330" x2="320" y1="632" y2="636" stroke="blue"/>
<circle cx="330" cy="656" r="2"   stroke="black"/>
<circle cx="330" cy="655" r="2"   stroke="green"/>
<line x1="330" x2="320" y1="656" y2="657" stroke="black"/>
<line x1="330" x2="320" y1="655" y2="666" stroke="green"/>
<circle cx="340" cy="568" r="2"   stroke="red"/>
<circle cx="340" cy="627" r="2"   stroke="blue"/>
<line x1="340" x2="330" y1="568" y2="575" stroke="red"/>
<line x1="340" x2="330" y1="627" y2="632" stroke="blue"/>
<circle cx="340" cy="657" r="2"   stroke="black"/>
<circle cx="340" cy="664" r="2"   stroke="green"/>
<line x1="340" x2="330" y1="657" y2="656" stroke="black"/>
<line x1="340" x2="330" y1="664" y2="655" stroke="green"/>
<circle cx="350" cy="561" r="2"   stroke="red"/>
<circle cx="350" cy="615" r="2"   stroke="blue"/>
<line x1="350" x2="340" y1="561" y2="568" stroke="red"/>
<line x1="350" x2="340" y1="615" y2="627" stroke="blue"/>
<circle cx="350" cy="655" r="2"   stroke="black"/>
<circle cx="350" cy="667" r="2"   stroke="green"/>
<line x1="350" x2="340" y1="655" y2="657" stroke="black"/>
<line x1="350" x2="340" y1="667" y2="664" stroke="green"/>
<circle cx="360" cy="554" r="2"   stroke="red"/>
<circle cx="360" cy="612" r="2"   stroke="blue"/>
<line x1="360" x2="350" y1="554" y2="561" stroke="red"/>
<line x1="360" x2="350" y1="612" y2="615" stroke="blue"/>
<circle cx="360" cy="656" r="2"   stroke="black"/>
<circle cx="360" cy="664" r="2"   stroke="green"/>
<line x1="360" x2="350" y1="656" y2="655" stroke="black"/>
<line x1="360" x2="350" y1="664" y2="667" stroke="green"/>
<circle cx="370" cy="547" r="2"   stroke="red"/>
<circle cx="370" cy="608" r="2"   stroke="blue"/>
<line x1="370" x2="360" y1="547" y2="554" stroke="red"/>
<line x1="370" x2="360" y1="608" y2="612" stroke="blue"/>
<circle cx="370" cy="655" r="2"   stroke="black"/>
<circle cx="370" cy="661" r="2"   stroke="green"/>
<line x1="370" x2="360" y1="655" y2="656" stroke="black"/>
<line x1="370" x2="360" y1="661" y2="664" stroke="green"/>
<circle cx="380" cy="540" r="2"   stroke="red"/>
<circle cx="380" cy="618" r="2"   stroke="blue"/>
<line x1="380" x2="370" y1="540" y2="547" stroke="red"/>
<line x1="380" x2="370" y1="618" y2="608" stroke="blue"/>
<circle cx="380" cy="654" r="2"   stroke="black"/>
<circle cx="380" cy="662" r="2"   stroke="green"/>
<line x1="380" x2="370" y1="654" y2="655" stroke="black"/>
<line x1="380" x2="370" y1="662" y2="661" stroke="green"/>
<circle cx="390" cy="532" r="2"   stroke="red"/>
<circle cx="390" cy="611" r="2"   stroke="blue"/>
<line x1="390" x2="380" y1="532" y2="540" stroke="red"/>
<line x1="390" x2="380" y1="611" y2="618" stroke="blue"/>
<circle cx="390" cy="652" r="2"   stroke="black"/>
<circle cx="390" cy="665" r="2"   stroke="green"/>
<line x1="390" x2="380" y1="652" y2="654" stroke="black"/>
<line x1="390" x2="380" y1="665" y2="662" stroke="green"/>
<circle cx="400" cy="524" r="2"   stroke="red"/>
<circle cx="400" cy="593" r="2"   stroke="blue"/>
<line x1="400" x2="390" y1="524" y2="532" stroke="red"/>
<line x1="400" x2="390" y1="593" y2="611" stroke="blue"/>
<circle cx="400" cy="652" r="2"   stroke="black"/>
<circle cx="400" cy="663" r="2"   stroke="green"/>
<line x1="400" x2="390" y1="652" y2="652" stroke="black"/>
<line x1="400" x2="390" y1="663" y2="665" stroke="green"/>
<circle cx="410" cy="516" r="2"   stroke="red"/>
<circle cx="410" cy="600" r="2"   stroke="blue"/>
<line x1="410" x2="400" y1="516" y2="524" stroke="red"/>
<line x1="410" x2="400" y1="600" y2="593" stroke="blue"/>
<circle cx="410" cy="651" r="2"   stroke="black"/>
<circle cx="410" cy="659" r="2"   stroke="green"/>
<line x1="410" x2="400" y1="651" y2="652" stroke="black"/>
<line x1="410" x2="400" y1="659" y2="663" stroke="green"/>
<circle cx="420" cy="508" r="2"   stroke="red"/>
<circle cx="420" cy="613" r="2"   stroke="blue"/>
<line x1="420" x2="410" y1="508" y2="516" stroke="red"/>
<line x1="420" x2="410" y1="613" y2="600" stroke="blue"/>
<circle cx="420" cy="650" r="2"   stroke="black"/>
<circle cx="420" cy="662" r="2"   stroke="green"/>
<line x1="420" x2="410" y1="650" y2="651" stroke="black"/>
<line x1="420" x2="410" y1="662" y2="659" stroke="green"/>
<circle cx="430" cy="500" r="2"   stroke="red"/>
<circle cx="430" cy="604" r="2"   stroke="blue"/>
<line x1="430" x2="420" y1="500" y2="508" stroke="red"/>
<line x1="430" x2="420" y1="604" y2="613" stroke="blue"/>
<circle cx="430" cy="648" r="2"   stroke="black"/>
<circle cx="430" cy="663" r="2"   stroke="green"/>
<line x1="430" x2="420" y1="648" y2="650" stroke="black"/>
<line x1="430" x2="420" y1="663" y2="662" stroke="green"/>
<circle cx="440" cy="491" r="2"   stroke="red"/>
<circle cx="440" cy="572" r="2"   stroke="blue"/>
<line x1="440" x2="430" y1="491" y2="500" stroke="red"/>
<line x1="440" x2="430" y1="572" y2="604" stroke="blue"/>
<circle cx="440" cy="649" r="2"   stroke="black"/>
<circle cx="440" cy="661" r="2"   stroke="green"/>
<line x1="440" x2="430" y1="649" y2="648" stroke="black"/>
<line x1="440" x2="430" y1="661" y2="663" stroke="green"/>
<circle cx="450" cy="482" r="2"   stroke="red"/>
<circle cx="450" cy="590" r="2"   stroke="blue"/>
<line x1="450" x2="440" y1="482" y2="491" stroke="red"/>
<line x1="450" x2="440" y1="590" y2="572" stroke="blue"/>
<circle cx="450" cy="647" r="2"   stroke="black"/>
<circle cx="450" cy="659" r="2"   stroke="green"/>
<line x1="450" x2="440" y1="647" y2="649" stroke="black"/>
<line x1="450" x2="440" y1="659" y2="661" stroke="green"/>
<circle cx="460" cy="473" r="2"   stroke="red"/>
<circle cx="460" cy="576" r="2"   stroke="blue"/>
<line x1="460" x2="450" y1="473" y2="482" stroke="red"/>
<line x1="460" x2="450" y1="576" y2="590" stroke="blue"/>
<circle cx="460" cy="648" r="2"   stroke="black"/>
<circle cx="460" cy="659" r="2"   stroke="green"/>
<line x1="460" x2="450" y1="648" y2="647" stroke="black"/>
<line x1="460" x2="450" y1="659" y2="659" stroke="green"/>
<circle cx="470" cy="464" r="2"   stroke="red"/>
<circle cx="470" cy="543" r="2"   stroke="blue"/>
<line x1="470" x2="460" y1="464" y2="473" stroke="red"/>
<line x1="470" x2="460" y1="543" y2="576" stroke="blue"/>
<circle cx="470" cy="647" r="2"   stroke="black"/>
<circle cx="470" cy="656" r="2"   stroke="green"/>
<line x1="470" x2="460" y1="647" y2="648" stroke="black"/>
<line x1="470" x2="460" y1="656" y2="659" stroke="green"/>
<circle cx="480" cy="455" r="2"   stroke="red"/>
<circle cx="480" cy="593" r="2"   stroke="blue"/>
<line x1="480" x2="470" y1="455" y2="464" stroke="red"/>
<line x1="480" x2="470" y1="593" y2="543" stroke="blue"/>
<circle cx="480" cy="645" r="2"   stroke="black"/>
<circle cx="480" cy="652" r="2"   stroke="green"/>
<line x1="480" x2="470" y1="645" y2="647" stroke="black"/>
<line x1="480" x2="470" y1="652" y2="656" stroke="green"/>
<circle cx="490" cy="445" r="2"   stroke="red"/>
<circle cx="490" cy="550" r="2"   stroke="blue"/>
<line x1="490" x2="480" y1="445" y2="455" stroke="red"/>
<line x1="490" x2="480" y1="550" y2="593" stroke="blue"/>
<circle cx="490" cy="645" r="2"   stroke="black"/>
<circle cx="490" cy="648" r="2"   stroke="green"/>
<line x1="490" x2="480" y1="645" y2="645" stroke="black"/>
<line x1="490" x2="480" y1="648" y2="652" stroke="green"/>
<circle cx="500" cy="435" r="2"   stroke="red"/>
<circle cx="500" cy="551" r="2"   stroke="blue"/>
<line x1="500" x2="490" y1="435" y2="445" stroke="red"/>
<line x1="500" x2="490" y1="551" y2="550" stroke="blue"/>
<circle cx="500" cy="645" r="2"   stroke="black"/>
<circle cx="500" cy="651" r="2"   stroke="green"/>
<line x1="500" x2="490" y1="645" y2="645" stroke="black"/>
<line x1="500" x2="490" y1="651" y2="648" stroke="green"/>
<circle cx="510" cy="425" r="2"   stroke="red"/>
<circle cx="510" cy="547" r="2"   stroke="blue"/>
<line x1="510" x2="500" y1="425" y2="435" stroke="red"/>
<line x1="510" x2="500" y1="547" y2="551" stroke="blue"/>
<circle cx="510" cy="644" r="2"   stroke="black"/>
<circle cx="510" cy="651" r="2"   stroke="green"/>
<line x1="510" x2="500" y1="644" y2="645" stroke="black"/>
<line x1="510" x2="500" y1="651" y2="651" stroke="green"/>
<circle cx="520" cy="415" r="2"   stroke="red"/>
<circle cx="520" cy="541" r="2"   stroke="blue"/>
<line x1="520" x2="510" y1="415" y2="425" stroke="red"/>
<line x1="520" x2="510" y1="541" y2="547" stroke="blue"/>
<circle cx="520" cy="644" r="2"   stroke="black"/>
<circle cx="520" cy="654" r="2"   stroke="green"/>
<line x1="520" x2="510" y1="644" y2="644" stroke="black"/>
<line x1="520" x2="510" y1="654" y2="651" stroke="green"/>
<circle cx="530" cy="405" r="2"   stroke="red"/>
<circle cx="530" cy="534" r="2"   stroke="blue"/>
<line x1="530" x2="520" y1="405" y2="415" stroke="red"/>
<line x1="530" x2="520" y1="534" y2="541" stroke="blue"/>
<circle cx="530" cy="643" r="2"   stroke="black"/>
<circle cx="530" cy="649" r="2"   stroke="green"/>
<line x1="530" x2="520" y1="643" y2="644" stroke="black"/>
<line x1="530" x2="520" y1="649" y2="654" stroke="green"/>
<circle cx="540" cy="394" r="2"   stroke="red"/>
<circle cx="540" cy="545" r="2"   stroke="blue"/>
<line x1="540" x2="530" y1="394" y2="405" stroke="red"/>
<line x1="540" x2="530" y1="545" y2="534" stroke="blue"/>
<circle cx="540" cy="642" r="2"   stroke="black"/>
<circle cx="540" cy="654" r="2"   stroke="green"/>
<line x1="540" x2="530" y1="642" y2="643" stroke="black"/>
<line x1="540" x2="530" y1="654" y2="649" stroke="green"/>
<circle cx="550" cy="383" r="2"   stroke="red"/>
<circle cx="550" cy="500" r="2"   stroke="blue"/>
<line x1="550" x2="540" y1="383" y2="394" stroke="red"/>
<line x1="550" x2="540" y1="500" y2="545" stroke="blue"/>
<circle cx="550" cy="642" r="2"   stroke="black"/>
<circle cx="550" cy="651" r="2"   stroke="green"/>
<line x1="550" x2="540" y1="642" y2="642" stroke="black"/>
<line x1="550" x2="540" y1="651" y2="654" stroke="green"/>
<circle cx="560" cy="372" r="2"   stroke="red"/>
<circle cx="560" cy="529" r="2"   stroke="blue"/>
<line x1="560" x2="550" y1="372" y2="383" stroke="red"/>
<line x1="560" x2="550" y1="529" y2="500" stroke="blue"/>
<circle cx="560" cy="640" r="2"   stroke="black"/>
<circle cx="560" cy="651" r="2"   stroke="green"/>
<line x1="560" x2="550" y1="640" y2="642" stroke="black"/>
<line x1="560" x2="550" y1="651" y2="651" stroke="green"/>
<circle cx="570" cy="361" r="2"   stroke="red"/>
<circle cx="570" cy="492" r="2"   stroke="blue"/>
<line x1="570" x2="560" y1="361" y2="372" stroke="red"/>
<line x1="570" x2="560" y1="492" y2="529" stroke="blue"/>
<circle cx="570" cy="639" r="2"   stroke="black"/>
<circle cx="570" cy="656" r="2"   stroke="green"/>
<line x1="570" x2="560" y1="639" y2="640" stroke="black"/>
<line x1="570" x2="560" y1="656" y2="651" stroke="green"/>
<circle cx="580" cy="350" r="2"   stroke="red"/>
<circle cx="580" cy="499" r="2"   stroke="blue"/>
<line x1="580" x2="570" y1="350" y2="361" stroke="red"/>
<line x1="580" x2="570" y1="499" y2="492" stroke="blue"/>
<circle cx="580" cy="639" r="2"   stroke="black"/>
<circle cx="580" cy="643" r="2"   stroke="green"/>
<line x1="580" x2="570" y1="639" y2="639" stroke="black"/>
<line x1="580" x2="570" y1="643" y2="656" stroke="green"/>
<circle cx="590" cy="338" r="2"   stroke="red"/>
<circle cx="590" cy="502" r="2"   stroke="blue"/>
<line x1="590" x2="580" y1="338" y2="350" stroke="red"/>
<line x1="590" x2="580" y1="502" y2="499" stroke="blue"/>
<circle cx="590" cy="638" r="2"   stroke="black"/>
<circle cx="590" cy="649" r="2"   stroke="green"/>
<line x1="590" x2="580" y1="638" y2="639" stroke="black"/>
<line x1="590" x2="580" y1="649" y2="643" stroke="green"/>
<circle cx="600" cy="326" r="2"   stroke="red"/>
<circle cx="600" cy="485" r="2"   stroke="blue"/>
<line x1="600" x2="590" y1="326" y2="338" stroke="red"/>
<line x1="600" x2="590" y1="485" y2="502" stroke="blue"/>
<circle cx="600" cy="638" r="2"   stroke="black"/>
<circle cx="600" cy="646" r="2"   stroke="green"/>
<line x1="600" x2="590" y1="638" y2="638" stroke="black"/>
<line x1="600" x2="590" y1="646" y2="649" stroke="green"/>
<circle cx="610" cy="314" r="2"   stroke="red"/>
<circle cx="610" cy="492" r="2"   stroke="blue"/>
<line x1="610" x2="600" y1="314" y2="326" stroke="red"/>
<line x1="610" x2="600" y1="492" y2="485" stroke="blue"/>
<circle cx="610" cy="637" r="2"   stroke="black"/>
<circle cx="610" cy="648" r="2"   stroke="green"/>
<line x1="610" x2="600" y1="637" y2="638" stroke="black"/>
<line x1="610" x2="600" y1="648" y2="646" stroke="green"/>
<circle cx="620" cy="302" r="2"   stroke="red"/>
<circle cx="620" cy="473" r="2"   stroke="blue"/>
<line x1="620" x2="610" y1="302" y2="314" stroke="red"/>
<line x1="620" x2="610" y1="473" y2="492" stroke="blue"/>
<circle cx="620" cy="635" r="2"   stroke="black"/>
<circle cx="620" cy="647" r="2"   stroke="green"/>
<line x1="620" x2="610" y1="635" y2="637" stroke="black"/>
<line x1="620" x2="610" y1="647" y2="648" stroke="green"/>
<circle cx="630" cy="290" r="2"   stroke="red"/>
<circle cx="630" cy="466" r="2"   stroke="blue"/>
<line x1="630" x2="620" y1="290" y2="302" stroke="red"/>
<line x1="630" x2="620" y1="466" y2="473" stroke="blue"/>
<circle cx="630" cy="636" r="2"   stroke="black"/>
<circle cx="630" cy="645" r="2"   stroke="green"/>
<line x1="630" x2="620" y1="636" y2="635" stroke="black"/>
<line x1="630" x2="620" y1="645" y2="647" stroke="green"/>
<circle cx="640" cy="277" r="2"   stroke="red"/>
<circle cx="640" cy="471" r="2"   stroke="blue"/>
<line x1="640" x2="630" y1="277" y2="290" stroke="red"/>
<line x1="640" x2="630" y1="471" y2="466" stroke="blue"/>
<circle cx="640" cy="622" r="2"   stroke="black"/>
<circle cx="640" cy="642" r="2"   stroke="green"/>
<line x1="640" x2="630" y1="622" y2="636" stroke="black"/>
<line x1="640" x2="630" y1="642" y2="645" stroke="green"/>
<circle cx="650" cy="264" r="2"   stroke="red"/>
<circle cx="650" cy="460" r="2"   stroke="blue"/>
<line x1="650" x2="640" y1="264" y2="277" stroke="red"/>
<line x1="650" x2="640" y1="460" y2="471" stroke="blue"/>
<circle cx="650" cy="622" r="2"   stroke="black"/>
<circle cx="650" cy="624" r="2"   stroke="green"/>
<line x1="650" x2="640" y1="622" y2="622" stroke="black"/>
<line x1="650" x2="640" y1="624" y2="642" stroke="green"/>
<circle cx="660" cy="251" r="2"   stroke="red"/>
<circle cx="660" cy="498" r="2"   stroke="blue"/>
<line x1="660" x2="650" y1="251" y2="264" stroke="red"/>
<line x1="660" x2="650" y1="498" y2="460" stroke="blue"/>
<circle cx="660" cy="620" r="2"   stroke="black"/>
<circle cx="660" cy="640" r="2"   stroke="green"/>
<line x1="660" x2="650" y1="620" y2="622" stroke="black"/>
<line x1="660" x2="650" y1="640" y2="624" stroke="green"/>
<circle cx="670" cy="238" r="2"   stroke="red"/>
<circle cx="670" cy="461" r="2"   stroke="blue"/>
<line x1="670" x2="660" y1="238" y2="251" stroke="red"/>
<line x1="670" x2="660" y1="461" y2="498" stroke="blue"/>
<circle cx="670" cy="619" r="2"   stroke="black"/>
<circle cx="670" cy="640" r="2"   stroke="green"/>
<line x1="670" x2="660" y1="619" y2="620" stroke="black"/>
<line x1="670" x2="660" y1="640" y2="640" stroke="green"/>
<circle cx="680" cy="225" r="2"   stroke="red"/>
<circle cx="680" cy="470" r="2"   stroke="blue"/>
<line x1="680" x2="670" y1="225" y2="238" stroke="red"/>
<line x1="680" x2="670" y1="470" y2="461" stroke="blue"/>
<circle cx="680" cy="618" r="2"   stroke="black"/>
<circle cx="680" cy="645" r="2"   stroke="green"/>
<line x1="680" x2="670" y1="618" y2="619" stroke="black"/>
<line x1="680" x2="670" y1="645" y2="640" stroke="green"/>
<circle cx="690" cy="211" r="2"   stroke="red"/>
<circle cx="690" cy="446" r="2"   stroke="blue"/>
<line x1="690" x2="680" y1="211" y2="225" stroke="red"/>
<line x1="690" x2="680" y1="446" y2="470" stroke="blue"/>
<circle cx="690" cy="617" r="2"   stroke="black"/>
<circle cx="690" cy="638" r="2"   stroke="green"/>
<line x1="690" x2="680" y1="617" y2="618" stroke="black"/>
<line x1="690" x2="680" y1="638" y2="645" stroke="green"/>
<circle cx="700" cy="197" r="2"   stroke="red"/>
<circle cx="700" cy="433" r="2"   stroke="blue"/>
<line x1="700" x2="690" y1="197" y2="211" stroke="red"/>
<line x1="700" x2="690" y1="433" y2="446" stroke="blue"/>
<circle cx="700" cy="618" r="2"   stroke="black"/>
<circle cx="700" cy="628" r="2"   stroke="green"/>
<line x1="700" x2="690" y1="618" y2="617" stroke="black"/>
<line x1="700" x2="690" y1="628" y2="638" stroke="green"/>

</svg>